\relax 
\providecommand\hyper@newdestlabel[2]{}
\providecommand\zref@newlabel[2]{}
\citation{ref:IL3000}
\citation{ref:IL3000}
\citation{ref:ISO124}
\citation{ref:ISO124}
\@writefile{toc}{\contentsline {section}{\numberline {4}Problemlösungen}{10}{section.4}\protected@file@percent }
\@writefile{toc}{\contentsline {subsection}{\numberline {4.1}Drucksensoren und Signale}{10}{subsection.4.1}\protected@file@percent }
\@writefile{lof}{\contentsline {figure}{\numberline {2}{\ignorespaces Signal der Drucksensoren\relax }}{10}{figure.caption.2}\protected@file@percent }
\newlabel{fig:signal}{{2}{10}{Signal der Drucksensoren\relax }{figure.caption.2}{}}
\@writefile{toc}{\contentsline {subsection}{\numberline {4.2}Isolierte Abtastung}{10}{subsection.4.2}\protected@file@percent }
\@writefile{lof}{\contentsline {figure}{\numberline {3}{\ignorespaces IL300 Trennverstärkerschaltung (aus \cite  {ref:IL3000})\relax }}{11}{figure.caption.3}\protected@file@percent }
\newlabel{fig:IL300}{{3}{11}{IL300 Trennverstärkerschaltung (aus \cite {ref:IL3000})\relax }{figure.caption.3}{}}
\@writefile{lof}{\contentsline {figure}{\numberline {4}{\ignorespaces ISO124 Trennverstärkerschaltung (aus \cite  {ref:ISO124})\relax }}{11}{figure.caption.4}\protected@file@percent }
\newlabel{fig:ISO124}{{4}{11}{ISO124 Trennverstärkerschaltung (aus \cite {ref:ISO124})\relax }{figure.caption.4}{}}
\citation{ref:ADS8688}
\citation{ref:ADS8688}
\citation{ref:ADS8688,ref:IL3000,ref:ISO124}
\@writefile{lof}{\contentsline {figure}{\numberline {5}{\ignorespaces Beispiel für SPS-Analogeingangskarte (aus \cite  {ref:ADS8688})\relax }}{12}{figure.caption.5}\protected@file@percent }
\newlabel{fig:ADS8688}{{5}{12}{Beispiel für SPS-Analogeingangskarte (aus \cite {ref:ADS8688})\relax }{figure.caption.5}{}}
\@writefile{toc}{\contentsline {subsection}{\numberline {4.3}SPS Kommunikation}{13}{subsection.4.3}\protected@file@percent }
\@writefile{toc}{\contentsline {subsubsection}{\numberline {4.3.1}PG/OP}{13}{subsubsection.4.3.1}\protected@file@percent }
\@writefile{toc}{\contentsline {subsection}{\numberline {4.4}Profibus}{14}{subsection.4.4}\protected@file@percent }
\@writefile{toc}{\contentsline {subsection}{\numberline {4.5}CAN}{14}{subsection.4.5}\protected@file@percent }
\@writefile{toc}{\contentsline {subsection}{\numberline {4.6}TCP}{14}{subsection.4.6}\protected@file@percent }
\@writefile{toc}{\contentsline {subsection}{\numberline {4.7}Wahl des Mikrocontrollers}{15}{subsection.4.7}\protected@file@percent }
\@writefile{toc}{\contentsline {subsubsection}{\numberline {4.7.1}Mikrocontroller/Prozessor}{15}{subsubsection.4.7.1}\protected@file@percent }
\citation{ref:NUCLEO}
\@writefile{toc}{\contentsline {subsubsection}{\numberline {4.7.2}Peripherie}{16}{subsubsection.4.7.2}\protected@file@percent }
\@writefile{toc}{\contentsline {subsubsection}{\numberline {4.7.3}Begründung der Wahl}{16}{subsubsection.4.7.3}\protected@file@percent }
\citation{ref:NUCLEO}
\@writefile{toc}{\contentsline {subsection}{\numberline {4.8}Peak Detektion}{18}{subsection.4.8}\protected@file@percent }
\@writefile{lof}{\contentsline {figure}{\numberline {6}{\ignorespaces Frequenzspektrum des Signals\relax }}{18}{figure.caption.6}\protected@file@percent }
\newlabel{fig:spectrum}{{6}{18}{Frequenzspektrum des Signals\relax }{figure.caption.6}{}}
\@writefile{toc}{\contentsline {subsection}{\numberline {4.9}Algorithmus}{19}{subsection.4.9}\protected@file@percent }
\@writefile{toc}{\contentsline {subsubsection}{\numberline {4.9.1}Erstellung des geglätteten Modells}{20}{subsubsection.4.9.1}\protected@file@percent }
\@writefile{toc}{\contentsline {paragraph}{\numberline {4.9.1.1}Gleitende Standardabweichung (moving standard deviation)}{20}{paragraph.4.9.1.1}\protected@file@percent }
\@writefile{toc}{\contentsline {paragraph}{\numberline {4.9.1.2}Gleitender Mittelwert (moving average)}{20}{paragraph.4.9.1.2}\protected@file@percent }
\@writefile{toc}{\contentsline {paragraph}{\numberline {4.9.1.3}Vollständiges Modell}{21}{paragraph.4.9.1.3}\protected@file@percent }
\newlabel{eq:movstd}{{15}{21}{Vollständiges Modell}{equation.4.15}{}}
\newlabel{eq:movavg}{{16}{21}{Vollständiges Modell}{equation.4.16}{}}
\@writefile{toc}{\contentsline {subsubsection}{\numberline {4.9.2}Peaks finden und filtern}{22}{subsubsection.4.9.2}\protected@file@percent }
\@writefile{toc}{\contentsline {paragraph}{\numberline {4.9.2.1}Lokale Maxima und Minima im Modell finden}{22}{paragraph.4.9.2.1}\protected@file@percent }
\@writefile{toc}{\contentsline {paragraph}{\numberline {4.9.2.2}Peaks Filtern und im echten Spektrum finden}{24}{paragraph.4.9.2.2}\protected@file@percent }
\@writefile{toc}{\contentsline {subsection}{\numberline {4.10}Ergebnisse des Algorithmus}{25}{subsection.4.10}\protected@file@percent }
\@writefile{lof}{\contentsline {figure}{\numberline {7}{\ignorespaces Ergebnis 1\relax }}{25}{figure.caption.7}\protected@file@percent }
\newlabel{fig:ergebnis1}{{7}{25}{Ergebnis 1\relax }{figure.caption.7}{}}
\@writefile{lof}{\contentsline {figure}{\numberline {8}{\ignorespaces Ergebnis 2\relax }}{26}{figure.caption.8}\protected@file@percent }
\newlabel{fig:ergebnis2}{{8}{26}{Ergebnis 2\relax }{figure.caption.8}{}}
\@writefile{toc}{\contentsline {section}{\numberline {5}Leiterplatte und Gehäuse}{26}{section.5}\protected@file@percent }
\@writefile{lof}{\contentsline {figure}{\numberline {9}{\ignorespaces Leiterplatte im italtronic 12MXTSB Gehäuse  (Anschlussklemmen wurden zur Visualisierung digital hinzugefügt)\relax }}{27}{figure.caption.9}\protected@file@percent }
\newlabel{fig:gehause}{{9}{27}{Leiterplatte im italtronic 12MXTSB Gehäuse \\(Anschlussklemmen wurden zur Visualisierung digital hinzugefügt)\relax }{figure.caption.9}{}}
\@setckpt{Problemloesungen}{
\setcounter{page}{28}
\setcounter{equation}{17}
\setcounter{enumi}{0}
\setcounter{enumii}{0}
\setcounter{enumiii}{0}
\setcounter{enumiv}{0}
\setcounter{footnote}{0}
\setcounter{mpfootnote}{0}
\setcounter{part}{0}
\setcounter{section}{5}
\setcounter{subsection}{0}
\setcounter{subsubsection}{0}
\setcounter{paragraph}{0}
\setcounter{subparagraph}{0}
\setcounter{figure}{9}
\setcounter{table}{0}
\setcounter{FancyVerbLine}{13}
\setcounter{linenumber}{1}
\setcounter{LN@truepage}{28}
\setcounter{FV@TrueTabGroupLevel}{10}
\setcounter{FV@TrueTabCounter}{0}
\setcounter{FV@HighlightLinesStart}{0}
\setcounter{FV@HighlightLinesStop}{0}
\setcounter{FancyVerbLineBreakLast}{0}
\setcounter{float@type}{8}
\setcounter{minted@FancyVerbLineTemp}{12}
\setcounter{minted@pygmentizecounter}{4}
\setcounter{listing}{0}
\setcounter{parentequation}{0}
\setcounter{Item}{0}
\setcounter{Hfootnote}{0}
\setcounter{bookmark@seq@number}{26}
\setcounter{mdf@globalstyle@cnt}{0}
\setcounter{mdfcountframes}{0}
\setcounter{mdf@env@i}{0}
\setcounter{mdf@env@ii}{0}
\setcounter{mdf@zref@counter}{0}
\setcounter{caption@flags}{0}
\setcounter{continuedfloat}{0}
\setcounter{KVtest}{0}
\setcounter{subfigure}{0}
\setcounter{subfigure@save}{0}
\setcounter{lofdepth}{1}
\setcounter{subtable}{0}
\setcounter{subtable@save}{0}
\setcounter{lotdepth}{1}
\setcounter{section@level}{0}
}
