\relax 
\providecommand\hyper@newdestlabel[2]{}
\providecommand\zref@newlabel[2]{}
\providecommand\HyperFirstAtBeginDocument{\AtBeginDocument}
\HyperFirstAtBeginDocument{\ifx\hyper@anchor\@undefined
\global\let\oldcontentsline\contentsline
\gdef\contentsline#1#2#3#4{\oldcontentsline{#1}{#2}{#3}}
\global\let\oldnewlabel\newlabel
\gdef\newlabel#1#2{\newlabelxx{#1}#2}
\gdef\newlabelxx#1#2#3#4#5#6{\oldnewlabel{#1}{{#2}{#3}}}
\AtEndDocument{\ifx\hyper@anchor\@undefined
\let\contentsline\oldcontentsline
\let\newlabel\oldnewlabel
\fi}
\fi}
\global\let\hyper@last\relax 
\gdef\HyperFirstAtBeginDocument#1{#1}
\providecommand\HyField@AuxAddToFields[1]{}
\providecommand\HyField@AuxAddToCoFields[2]{}
\providecommand\babel@aux[2]{}
\@nameuse{bbl@beforestart}
\catcode `"\active 
\babel@aux{ngerman}{}
\@input{Einleitung.aux}
\@input{Unternehmen.aux}
\@input{Problemstellung.aux}
\@input{Problemloesungen.aux}
\@input{Tests.aux}
\@input{Resume.aux}
\bibstyle{plain}
\bibdata{Quellen}
\bibcite{ref:ADS8688}{1}
\bibcite{ref:ibutec_reaktor}{2}
\bibcite{ref:ibutec_geschichte}{3}
\bibcite{ref:IL3000}{4}
\bibcite{ref:ISO124}{5}
\bibcite{ref:NUCLEO}{6}
\@writefile{toc}{\contentsline {section}{Quellen}{31}{section*.11}\protected@file@percent }
\@input{Unterschrift.aux}
\@writefile{toc}{\contentsline {section}{Unterschrift}{32}{section*.11}\protected@file@percent }
\gdef \@abspage@last{33}
